{
  "count": 1043,
  "next": "https://data.bus-data.dft.gov.uk/api/v1/fares/dataset/?limit=25&offset=25",
  "previous": null,
  "results": [
    {
      "id": 873,
      "created": "2020-11-16T14:41:04+00:00",
      "modified": "2020-12-16T11:53:19+00:00",
      "operatorName": "The Green Bus",
      "noc": [
        "TGTC",
        "TGBC"
      ],
      "name": "The Green Bus_20201116 14:41:04",
      "description": "50Y",
      "comment": "First publication",
      "status": "inactive",
      "url": "https://data.bus-data.dft.gov.uk/fares/dataset/873/download/",
      "startDate": "2020-10-20T12:57:45+00:00",
      "endDate": "2120-10-20T11:57:45+00:00",
      "numOfLines": 1,
      "numOfFareZones": 2,
      "numOfSalesOfferPackages": 1,
      "numOfFareProducts": 1,
      "numOfUserTypes": 5,
      "extension": "xml"
    },
    {
      "id": 892,
      "created": "2020-11-17T13:36:01+00:00",
      "modified": "2020-12-16T11:53:05+00:00",
      "operatorName": "The Green Bus",
      "noc": [
        "TGTC",
        "TGBC"
      ],
      "name": "The Green Bus_20201117 13:36:01",
      "description": "Single 50X",
      "comment": "First publication",
      "status": "inactive",
      "url": "https://data.bus-data.dft.gov.uk/fares/dataset/892/download/",
      "startDate": "2020-10-20T12:54:07+00:00",
      "endDate": "2120-10-20T11:54:07+00:00",
      "numOfLines": 1,
      "numOfFareZones": 2,
      "numOfSalesOfferPackages": 1,
      "numOfFareProducts": 1,
      "numOfUserTypes": 5,
      "extension": "xml"
    },
    {
      "id": 901,
      "created": "2020-11-17T16:42:24+00:00",
      "modified": "2020-11-17T16:42:59+00:00",
      "operatorName": "Blackpool Transport",
      "noc": [
        "BLAC"
      ],
      "name": "Blackpool Transport_20201117 16:42:24",
      "description": "As of 24.08.2020",
      "comment": "First publication",
      "status": "published",
      "url": "https://data.bus-data.dft.gov.uk/fares/dataset/901/download/",
      "startDate": "2020-08-22T11:26:44+00:00",
      "endDate": "2022-08-22T11:34:59+00:00",
      "numOfLines": 14,
      "numOfFareZones": 264,
      "numOfSalesOfferPackages": 28,
      "numOfFareProducts": 14,
      "numOfUserTypes": 70,
      "extension": "zip"
    },
    {
      "id": 902,
      "created": "2020-11-17T16:43:42+00:00",
      "modified": "2020-11-17T16:44:02+00:00",
      "operatorName": "Travel Wright",
      "noc": [
        "TWGT"
      ],
      "name": "Travel Wright_20201117 16:43:42",
      "description": "Newark-Caunton-Norwell Adult Single",
      "comment": "First publication",
      "status": "published",
      "url": "https://data.bus-data.dft.gov.uk/fares/dataset/902/download/",
      "startDate": "2020-09-23T11:43:04+00:00",
      "endDate": "2022-09-23T11:43:04+00:00",
      "numOfLines": 1,
      "numOfFareZones": 7,
      "numOfSalesOfferPackages": 1,
      "numOfFareProducts": 1,
      "numOfUserTypes": 5,
      "extension": "xml"
    },
    {
      "id": 903,
      "created": "2021-04-23T13:23:14+00:00",
      "modified": "2021-04-23T13:24:27+00:00",
      "operatorName": "Ensign Bus",
      "noc": [
        "ENSB"
      ],
      "name": "Ensign Bus_20210423 12:23:14",
      "description": "Ensignbus, Service X80: Bluewater (Kent) - Chafford Hundred Station (Thurrock), Daily.  ADULT SINGLE",
      "comment": "Data updated",
      "status": "published",
      "url": "https://data.bus-data.dft.gov.uk/fares/dataset/903/download/",
      "startDate": "2021-04-23T13:18:42+00:00",
      "endDate": "2121-04-23T12:18:42+00:00",
      "numOfLines": 1,
      "numOfFareZones": 7,
      "numOfSalesOfferPackages": 2,
      "numOfFareProducts": 1,
      "numOfUserTypes": 5,
      "extension": "xml"
    },
    {
      "id": 925,
      "created": "2020-11-19T06:45:17+00:00",
      "modified": "2020-11-19T06:45:49+00:00",
      "operatorName": "AC Williams",
      "noc": [
        "WMSA"
      ],
      "name": "AC Williams_20201119 06:45:17",
      "description": "WM07 - Cranwell to Sleaford - Version 1",
      "comment": "First publication",
      "status": "published",
      "url": "https://data.bus-data.dft.gov.uk/fares/dataset/925/download/",
      "startDate": "2020-10-01T06:56:36+00:00",
      "endDate": "2120-10-01T05:56:36+00:00",
      "numOfLines": 1,
      "numOfFareZones": 7,
      "numOfSalesOfferPackages": 1,
      "numOfFareProducts": 1,
      "numOfUserTypes": 5,
      "extension": "xml"
    },
    {
      "id": 926,
      "created": "2020-11-19T06:46:57+00:00",
      "modified": "2020-11-19T06:47:48+00:00",
      "operatorName": "AC Williams",
      "noc": [
        "WMSA"
      ],
      "name": "AC Williams_20201119 06:46:57",
      "description": "WM06 - Sleaford to Welbourn - Version 1",
      "comment": "First publication",
      "status": "published",
      "url": "https://data.bus-data.dft.gov.uk/fares/dataset/926/download/",
      "startDate": "2020-09-30T12:26:35+00:00",
      "endDate": "2120-09-30T11:26:35+00:00",
      "numOfLines": 1,
      "numOfFareZones": 8,
      "numOfSalesOfferPackages": 1,
      "numOfFareProducts": 1,
      "numOfUserTypes": 5,
      "extension": "xml"
    },
    {
      "id": 969,
      "created": "2020-11-20T14:54:21+00:00",
      "modified": "2020-11-20T14:54:57+00:00",
      "operatorName": "Z&S Transport",
      "noc": [
        "ZSIN"
      ],
      "name": "Z&S Transport_20201120 14:54:21",
      "description": "K1 Kingsbrook - Aylesbury Train Station \r\nAdult Single",
      "comment": "First publication",
      "status": "published",
      "url": "https://data.bus-data.dft.gov.uk/fares/dataset/969/download/",
      "startDate": "2020-11-18T12:53:28+00:00",
      "endDate": "2120-11-18T12:53:28+00:00",
      "numOfLines": 1,
      "numOfFareZones": 3,
      "numOfSalesOfferPackages": 1,
      "numOfFareProducts": 1,
      "numOfUserTypes": 5,
      "extension": "xml"
    },
    {
      "id": 970,
      "created": "2020-11-20T14:56:41+00:00",
      "modified": "2020-11-20T14:57:10+00:00",
      "operatorName": "Z&S Transport",
      "noc": [
        "ZSIN"
      ],
      "name": "Z&S Transport_20201120 14:56:41",
      "description": "K1 Aylesbury Train Station - Kingsbrook\r\nAdult Single",
      "comment": "First publication",
      "status": "published",
      "url": "https://data.bus-data.dft.gov.uk/fares/dataset/970/download/",
      "startDate": "2020-11-18T12:55:06+00:00",
      "endDate": "2120-11-18T12:55:06+00:00",
      "numOfLines": 1,
      "numOfFareZones": 3,
      "numOfSalesOfferPackages": 1,
      "numOfFareProducts": 1,
      "numOfUserTypes": 5,
      "extension": "xml"
    },
    {
      "id": 971,
      "created": "2020-11-20T14:58:43+00:00",
      "modified": "2020-11-20T14:59:03+00:00",
      "operatorName": "Z&S Transport",
      "noc": [
        "ZSIN"
      ],
      "name": "Z&S Transport_20201120 14:58:43",
      "description": "K1 Kingsbrook - Aylesbury Train Station \r\nChild - single",
      "comment": "First publication",
      "status": "published",
      "url": "https://data.bus-data.dft.gov.uk/fares/dataset/971/download/",
      "startDate": "2020-11-18T12:57:22+00:00",
      "endDate": "2120-11-18T12:57:22+00:00",
      "numOfLines": 1,
      "numOfFareZones": 3,
      "numOfSalesOfferPackages": 1,
      "numOfFareProducts": 1,
      "numOfUserTypes": 5,
      "extension": "xml"
    },
    {
      "id": 972,
      "created": "2020-11-20T15:00:31+00:00",
      "modified": "2020-11-20T15:01:10+00:00",
      "operatorName": "Z&S Transport",
      "noc": [
        "ZSIN"
      ],
      "name": "Z&S Transport_20201120 15:00:31",
      "description": "K1 Aylesbury Train Station - Kingsbrook \r\nChild Single",
      "comment": "First publication",
      "status": "published",
      "url": "https://data.bus-data.dft.gov.uk/fares/dataset/972/download/",
      "startDate": "2020-11-18T12:59:00+00:00",
      "endDate": "2120-11-18T12:59:00+00:00",
      "numOfLines": 1,
      "numOfFareZones": 3,
      "numOfSalesOfferPackages": 1,
      "numOfFareProducts": 1,
      "numOfUserTypes": 5,
      "extension": "xml"
    },
    {
      "id": 973,
      "created": "2020-11-20T15:03:59+00:00",
      "modified": "2020-11-20T15:04:27+00:00",
      "operatorName": "Z&S Transport",
      "noc": [
        "ZSIN"
      ],
      "name": "Z&S Transport_20201120 15:03:59",
      "description": "K1 Kingsbrook - Aylesbury Train Station \r\nAdult Return",
      "comment": "First publication",
      "status": "published",
      "url": "https://data.bus-data.dft.gov.uk/fares/dataset/973/download/",
      "startDate": "2020-11-18T13:04:43+00:00",
      "endDate": "2120-11-18T13:04:43+00:00",
      "numOfLines": 1,
      "numOfFareZones": 3,
      "numOfSalesOfferPackages": 1,
      "numOfFareProducts": 1,
      "numOfUserTypes": 5,
      "extension": "xml"
    },
    {
      "id": 974,
      "created": "2020-11-20T15:06:04+00:00",
      "modified": "2020-11-20T15:06:24+00:00",
      "operatorName": "Z&S Transport",
      "noc": [
        "ZSIN"
      ],
      "name": "Z&S Transport_20201120 15:06:04",
      "description": "K1 Aylesbury Train Station - Kingsbrook \r\nAdult return",
      "comment": "First publication",
      "status": "published",
      "url": "https://data.bus-data.dft.gov.uk/fares/dataset/974/download/",
      "startDate": "2020-11-18T13:06:33+00:00",
      "endDate": "2120-11-18T13:06:33+00:00",
      "numOfLines": 1,
      "numOfFareZones": 3,
      "numOfSalesOfferPackages": 1,
      "numOfFareProducts": 1,
      "numOfUserTypes": 5,
      "extension": "xml"
    },
    {
      "id": 975,
      "created": "2020-11-20T15:07:51+00:00",
      "modified": "2020-11-20T15:08:11+00:00",
      "operatorName": "Z&S Transport",
      "noc": [
        "ZSIN"
      ],
      "name": "Z&S Transport_20201120 15:07:51",
      "description": "K1 Kingsbrook - Aylesbury Train Station\r\nChild Return",
      "comment": "First publication",
      "status": "published",
      "url": "https://data.bus-data.dft.gov.uk/fares/dataset/975/download/",
      "startDate": "2020-11-18T13:24:15+00:00",
      "endDate": "2120-11-18T13:24:15+00:00",
      "numOfLines": 1,
      "numOfFareZones": 3,
      "numOfSalesOfferPackages": 1,
      "numOfFareProducts": 1,
      "numOfUserTypes": 5,
      "extension": "xml"
    },
    {
      "id": 976,
      "created": "2020-11-20T15:09:14+00:00",
      "modified": "2020-11-20T15:09:40+00:00",
      "operatorName": "Z&S Transport",
      "noc": [
        "ZSIN"
      ],
      "name": "Z&S Transport_20201120 15:09:14",
      "description": "K1 Aylesbury Train Station - Kingsbrook \r\nChild Return",
      "comment": "First publication",
      "status": "published",
      "url": "https://data.bus-data.dft.gov.uk/fares/dataset/976/download/",
      "startDate": "2020-11-18T13:26:22+00:00",
      "endDate": "2120-11-18T13:26:22+00:00",
      "numOfLines": 1,
      "numOfFareZones": 3,
      "numOfSalesOfferPackages": 1,
      "numOfFareProducts": 1,
      "numOfUserTypes": 5,
      "extension": "xml"
    },
    {
      "id": 986,
      "created": "2020-11-23T11:22:11+00:00",
      "modified": "2020-11-23T11:22:47+00:00",
      "operatorName": "Pilkingtonbus",
      "noc": [
        "NWBT",
        "KNGT"
      ],
      "name": "Pilkingtonbus_20201123 11:22:11",
      "description": "Barnoldswick Hopper",
      "comment": "First publication",
      "status": "published",
      "url": "https://data.bus-data.dft.gov.uk/fares/dataset/986/download/",
      "startDate": "2020-08-12T13:25:38+00:00",
      "endDate": "2022-08-12T13:34:26+00:00",
      "numOfLines": 3,
      "numOfFareZones": 13,
      "numOfSalesOfferPackages": 6,
      "numOfFareProducts": 3,
      "numOfUserTypes": 15,
      "extension": "zip"
    },
    {
      "id": 987,
      "created": "2020-11-23T11:23:12+00:00",
      "modified": "2020-11-23T11:23:32+00:00",
      "operatorName": "Pilkingtonbus",
      "noc": [
        "NWBT",
        "KNGT"
      ],
      "name": "Pilkingtonbus_20201123 11:23:12",
      "description": "Hollins",
      "comment": "First publication",
      "status": "published",
      "url": "https://data.bus-data.dft.gov.uk/fares/dataset/987/download/",
      "startDate": "2020-08-12T09:24:09+00:00",
      "endDate": "2022-08-12T13:34:26+00:00",
      "numOfLines": 1,
      "numOfFareZones": 3,
      "numOfSalesOfferPackages": 2,
      "numOfFareProducts": 1,
      "numOfUserTypes": 5,
      "extension": "xml"
    },
    {
      "id": 988,
      "created": "2020-11-23T11:24:03+00:00",
      "modified": "2020-11-23T11:24:21+00:00",
      "operatorName": "Pilkingtonbus",
      "noc": [
        "NWBT",
        "KNGT"
      ],
      "name": "Pilkingtonbus_20201123 11:24:03",
      "description": "Ribblesdale",
      "comment": "First publication",
      "status": "published",
      "url": "https://data.bus-data.dft.gov.uk/fares/dataset/988/download/",
      "startDate": "2020-08-12T11:58:09+00:00",
      "endDate": "2022-08-12T13:34:26+00:00",
      "numOfLines": 1,
      "numOfFareZones": 9,
      "numOfSalesOfferPackages": 2,
      "numOfFareProducts": 1,
      "numOfUserTypes": 5,
      "extension": "xml"
    },
    {
      "id": 989,
      "created": "2020-11-23T11:24:37+00:00",
      "modified": "2020-11-23T11:24:57+00:00",
      "operatorName": "Pilkingtonbus",
      "noc": [
        "NWBT",
        "KNGT"
      ],
      "name": "Pilkingtonbus_20201123 11:24:37",
      "description": "St Augustine's/CRGS",
      "comment": "First publication",
      "status": "published",
      "url": "https://data.bus-data.dft.gov.uk/fares/dataset/989/download/",
      "startDate": "2020-08-12T09:35:54+00:00",
      "endDate": "2022-08-12T13:34:26+00:00",
      "numOfLines": 1,
      "numOfFareZones": 11,
      "numOfSalesOfferPackages": 2,
      "numOfFareProducts": 1,
      "numOfUserTypes": 5,
      "extension": "xml"
    },
    {
      "id": 990,
      "created": "2020-11-23T11:25:13+00:00",
      "modified": "2020-11-23T11:25:33+00:00",
      "operatorName": "Pilkingtonbus",
      "noc": [
        "NWBT",
        "KNGT"
      ],
      "name": "Pilkingtonbus_20201123 11:25:13",
      "description": "St Christopher's",
      "comment": "First publication",
      "status": "published",
      "url": "https://data.bus-data.dft.gov.uk/fares/dataset/990/download/",
      "startDate": "2020-08-12T11:24:41+00:00",
      "endDate": "2022-08-12T13:34:26+00:00",
      "numOfLines": 2,
      "numOfFareZones": 13,
      "numOfSalesOfferPackages": 4,
      "numOfFareProducts": 2,
      "numOfUserTypes": 10,
      "extension": "zip"
    },
    {
      "id": 991,
      "created": "2020-11-23T11:26:11+00:00",
      "modified": "2020-11-23T11:26:36+00:00",
      "operatorName": "Pilkingtonbus",
      "noc": [
        "NWBT",
        "KNGT"
      ],
      "name": "Pilkingtonbus_20201123 11:26:11",
      "description": "Accrington local",
      "comment": "First publication",
      "status": "published",
      "url": "https://data.bus-data.dft.gov.uk/fares/dataset/991/download/",
      "startDate": "2020-08-05T21:18:09+00:00",
      "endDate": "2022-08-12T15:34:26+00:00",
      "numOfLines": 18,
      "numOfFareZones": 63,
      "numOfSalesOfferPackages": 36,
      "numOfFareProducts": 18,
      "numOfUserTypes": 86,
      "extension": "zip"
    },
    {
      "id": 992,
      "created": "2020-11-23T11:27:12+00:00",
      "modified": "2020-11-23T11:27:35+00:00",
      "operatorName": "Pilkingtonbus",
      "noc": [
        "NWBT",
        "KNGT"
      ],
      "name": "Pilkingtonbus_20201123 11:27:12",
      "description": "St Augustine's",
      "comment": "First publication",
      "status": "published",
      "url": "https://data.bus-data.dft.gov.uk/fares/dataset/992/download/",
      "startDate": "2020-08-05T22:28:26+00:00",
      "endDate": "2022-08-12T13:34:26+00:00",
      "numOfLines": 6,
      "numOfFareZones": 56,
      "numOfSalesOfferPackages": 12,
      "numOfFareProducts": 6,
      "numOfUserTypes": 29,
      "extension": "zip"
    },
    {
      "id": 993,
      "created": "2020-11-23T11:28:10+00:00",
      "modified": "2020-11-23T11:28:32+00:00",
      "operatorName": "Pilkingtonbus",
      "noc": [
        "NWBT",
        "KNGT"
      ],
      "name": "Pilkingtonbus_20201123 11:28:10",
      "description": "Clitheroe",
      "comment": "First publication",
      "status": "published",
      "url": "https://data.bus-data.dft.gov.uk/fares/dataset/993/download/",
      "startDate": "2020-08-11T20:39:55+00:00",
      "endDate": "2022-08-12T13:34:26+00:00",
      "numOfLines": 2,
      "numOfFareZones": 11,
      "numOfSalesOfferPackages": 4,
      "numOfFareProducts": 2,
      "numOfUserTypes": 10,
      "extension": "zip"
    },
    {
      "id": 996,
      "created": "2020-11-23T11:42:44+00:00",
      "modified": "2020-11-23T11:43:07+00:00",
      "operatorName": "Z&S Transport",
      "noc": [
        "ZSIN"
      ],
      "name": "Z&S Transport_20201123 11:42:44",
      "description": "110 - Aylesbury - Thame\r\nAdult Single",
      "comment": "First publication",
      "status": "published",
      "url": "https://data.bus-data.dft.gov.uk/fares/dataset/996/download/",
      "startDate": "2020-11-23T10:48:21+00:00",
      "endDate": "2120-11-23T10:48:21+00:00",
      "numOfLines": 1,
      "numOfFareZones": 8,
      "numOfSalesOfferPackages": 1,
      "numOfFareProducts": 1,
      "numOfUserTypes": 5,
      "extension": "xml"
    },
    {
      "id": 997,
      "created": "2020-11-23T11:45:04+00:00",
      "modified": "2020-11-23T11:45:26+00:00",
      "operatorName": "Z&S Transport",
      "noc": [
        "ZSIN"
      ],
      "name": "Z&S Transport_20201123 11:45:04",
      "description": "110 Aylesbury - Thame \r\nChild SIngle",
      "comment": "First publication",
      "status": "published",
      "url": "https://data.bus-data.dft.gov.uk/fares/dataset/997/download/",
      "startDate": "2020-11-23T10:57:12+00:00",
      "endDate": "2120-11-23T10:57:12+00:00",
      "numOfLines": 1,
      "numOfFareZones": 8,
      "numOfSalesOfferPackages": 1,
      "numOfFareProducts": 1,
      "numOfUserTypes": 5,
      "extension": "xml"
    }
  ]
}
